else if(buffertemp[7:6]  ==  2'b01) return tuple3(0,0,2);
else if(buffertemp[7:2]  ==  6'b000111) return tuple3(0,1,6);
else if(buffertemp[7:7]  ==  1'b1) return tuple3(1,1,1);
else if(buffertemp[7:2]  ==  6'b000100) return tuple3(0,2,6);
else if(buffertemp[7:2]  ==  6'b000110) return tuple3(1,2,6);
else if(buffertemp[7:5]  ==  3'b001) return tuple3(2,2,3);
else if(buffertemp[7:2]  ==  6'b000011) return tuple3(0,3,6);
else if(buffertemp[7:1]  ==  7'b0000011) return tuple3(1,3,7);
else if(buffertemp[7:1]  ==  7'b0000010) return tuple3(2,3,7);
else if(buffertemp[7:2]  ==  6'b000101) return tuple3(3,3,6);
else if(buffertemp[7:2]  ==  6'b000010) return tuple3(0,4,6);
else if(buffertemp[7:0]  ==  8'b00000011) return tuple3(1,4,8);
else if(buffertemp[7:0]  ==  8'b00000010) return tuple3(2,4,8);
else if(buffertemp[7:1]  ==  7'b0000000) return tuple3(3,4,7);







