0  1		111	0101	00011	0101	000001	000001	000001	000001	00001	0000	0000	000	00	0 
1  011		110	111	111	0100	00001	00001	0001	000000	00000	0001	0001	001	01	1 
2  010		101	110	0101	0011	111	101	00001	0001	001	001	01	1	1	
3  0011		100	101	0100	111	110	100	011	11	11	010	1	01	
4  0010		011	0100	110	110	101	011	11	10	10	1	001	
5  00011	0101	0011	101	101	100	11	10	001	01	011	
6  00010	0100	100	100	100	011	010	010	01	0001	
7  000011	0011	011	0011	011	010	0001	001	00001	
8  000010	0010	0010	011	0010	0001	001	000000	
9  0000011	00011	00011	0010	00001	001	000000		
10 0000010	00010	00010	00010	0001	000000	
11 00000011	000011	000001	00001	00000	
12 00000010	000010	00001	00000	
13 000000011	000001	000000	
14 000000010	000000	
15 000000001	
