digraph streamit {
subgraph cluster_node1 {
 label="forw_1";
node2 [ label="source__10_4\npush=18\npop=0\npeek =0" ]
node3 [ label="mpcore__32_5\npush=8\npop=18\npeek =18" ]
node2 -> node3
node4 [ label="sink__37_6\npush=0\npop=8\npeek =8" ]
node3 -> node4
}
}
