digraph streamit {
subgraph cluster_node1 {
 label="forw_1";
node2 [ label="source_4\npush=18\npop=0\npeek =0" ]
node3 [ label="mpcore_5\npush=8\npop=18\npeek =18" ]
node2 -> node3
node4 [ label="sink_6\npush=0\npop=8\npeek =8" ]
node3 -> node4
}
}
