digraph streamit {
subgraph cluster_node1 {
 label="TopLevel2_WEIGHTED_ROUND_ROBIN_Splitter_14_23";
subgraph cluster_node2 {
 label="SplitJoin0_SplitJoin0_SplitJoin0_TwoVectSource_9_16_20_24";
node3 [ label="WEIGHTED_ROUND_ROBIN(0,0)" ]
node4 [ label="WEIGHTED_ROUND_ROBIN(1,1)" ]
subgraph cluster_node5 {
 label="Pipeline1_Pipeline1_Pipeline1_TwoVectSource_9_17_21_25";
node6 [ label="VectSource__4_10\npush=1\npop=0\npeek =0" ]
}
node3 -> node6
node6 -> node4
subgraph cluster_node7 {
 label="Pipeline2_Pipeline2_Pipeline2_TwoVectSource_9_18_22_26";
node8 [ label="VectSource__9_11\npush=1\npop=0\npeek =0" ]
}
node3 -> node8
node8 -> node4
}
node9 [ label="VectAddKernel__15_12\npush=1\npop=2\npeek =2" ]
node4 -> node9
node10 [ label="VectPrinter__19_13\npush=0\npop=1\npeek =1" ]
node9 -> node10
}
}
